[00:000] FOnline server, version 0520-F8.
[01:788] ***   Starting initialization   ****
[01:825] Script system initialization...
[01:872] Reload scripts...
[29:442] Reload scripts complete.
[29:443] Bind reserved functions...
[29:451] Bind reserved functions complete.
[29:451] Script system initialization complete.
[29:451] Loading language packs...
[29:534] Loading language packs complete, loaded<2> packs.
[29:534] Reload client scripts...
[30:882] Reload client scripts complete.
[30:882] Indexing client data.
[30:951] Id<10> of user<Контрик> already used by another client. Skipped.
[30:951] Id<11> of user<Святла> already used by another client. Skipped.
[30:951] Id<10> of user<Контрик> already used by another client. Skipped.
[30:951] Id<11> of user<Святла> already used by another client. Skipped.
[30:952] Id<13> of user<Киртнок> already used by another client. Skipped.
[31:091] Id<19> of user<Никто> already used by another client. Skipped.
[31:091] Id<19> of user<Никто> already used by another client. Skipped.
[32:810] Id<59> of user<Некто> already used by another client. Skipped.
[32:840] Id<63> of user<Нечто> already used by another client. Skipped.
[32:938] Id<74> of user<TbMa> already used by another client. Skipped.
[32:960] Id<79> of user<Ничто> already used by another client. Skipped.
[32:980] Id<83> of user<Sobrs> already used by another client. Skipped.
[33:008] Indexing complete, clients found<72>.
[33:008] AI manager initialization...
[33:008] Find bags...
[33:060] Loaded<156> bags.
[33:060] AI manager initialization complete.
[33:060] Item manager initialization...
[33:064] Item manager initialization complete.
[33:064] Critter manager initialization...
[33:092] Critter manager initialization complete.
[33:092] Map manager initialization...
[33:097] Map manager initialization complete.
[33:097] Var manager initialization.
[33:097] Update template vars...
[33:121] Update template vars complete.
[33:121] Var manager initialization complete.
[33:121] Load Dialogs...[33:121] from list<dialogs.lst>.
[46:838] Loading dialogs finish, loaded<873/873>.
[46:990] FixBoy load crafts...
[47:000] FixBoy load crafts complete.
[47:038] Loaded<328> critter types.
[47:051] Loading items prototypes...
[48:391] Items prototypes successfully loaded, count<6164>.
[48:391] Loading critters prototypes...
[48:459] Loaded<537> critter protos, errors<0>.
[48:459] Load location and map prototypes...
[01:08:093] Load location and map prototypes complete, loaded<145> location protos.
[01:08:188] Begin load world from dump file<save\world0383.fo>.
[01:08:188] Load game info...[01:08:188] complete.
[01:08:221] Load locations...
[01:08:359] Load locations complete, count<56>.
[01:08:359] Load npc...
[01:08:758] Load npc complete, count<3290>.
[01:08:758] Load items...[01:08:983] complete, count<25218>.
[01:08:983] Load vars...[01:08:990] complete, count<1431>.
[01:09:031] Load time events...[01:09:038] complete, count<42>.
[01:09:050] Transfer all npc to game...
[01:09:127] Transfer npc complete. Errors<0>.
[01:09:127] Transfer all items to npc, maps and containers...
[01:09:233] Transfer game items complete.
[01:10:631] Starting server on port<4000>.
[01:10:631] Starting net listen thread.
[01:10:631] Starting net work threads, count<2>.
[01:10:868] Starting logic threads, count<1>.
[01:10:868] ***   Starting game loop   ***
[04:54:615] Script callback: Access changed for player Странник, from 0 to 3. : main : bool player_getaccess(Critter&inout, int, string&inout) : 12796, 1 : FOServer::Process_Command : Странник.
[08:49:956] FOServer::Process_Dialog - Secondary check of dialog demands fail, client<Странник>.
[40:41:144] FOServer::Act_Reload - Unable to find weapon, id<133712>, critter<Npc (mob_sentry_bot, 5036973)>.
[40:42:347] FOServer::Act_Reload - Unable to find weapon, id<133712>, critter<Npc (mob_sentry_bot, 5036973)>.
[40:43:551] FOServer::Act_Reload - Unable to find weapon, id<133712>, critter<Npc (mob_sentry_bot, 5036973)>.
[40:44:764] FOServer::Act_Reload - Unable to find weapon, id<133712>, critter<Npc (mob_sentry_bot, 5036973)>.
[40:45:971] FOServer::Act_Reload - Unable to find weapon, id<133712>, critter<Npc (mob_sentry_bot, 5036973)>.
[40:47:174] FOServer::Act_Reload - Unable to find weapon, id<133712>, critter<Npc (mob_sentry_bot, 5036973)>.
[40:48:387] FOServer::Act_Reload - Unable to find weapon, id<133712>, critter<Npc (mob_sentry_bot, 5036973)>.
[40:49:589] FOServer::Act_Reload - Unable to find weapon, id<133712>, critter<Npc (mob_sentry_bot, 5036973)>.
[40:50:798] FOServer::Act_Reload - Unable to find weapon, id<133712>, critter<Npc (mob_sentry_bot, 5036973)>.
[40:52:000] FOServer::Act_Reload - Unable to find weapon, id<133712>, critter<Npc (mob_sentry_bot, 5036973)>.
[40:53:201] FOServer::Act_Reload - Unable to find weapon, id<133712>, critter<Npc (mob_sentry_bot, 5036973)>.
[40:54:413] FOServer::Act_Reload - Unable to find weapon, id<133712>, critter<Npc (mob_sentry_bot, 5036973)>.
[40:55:616] FOServer::Act_Reload - Unable to find weapon, id<133712>, critter<Npc (mob_sentry_bot, 5036973)>.
[40:56:825] FOServer::Act_Reload - Unable to find weapon, id<133712>, critter<Npc (mob_sentry_bot, 5036973)>.
[40:58:039] FOServer::Act_Reload - Unable to find weapon, id<133712>, critter<Npc (mob_sentry_bot, 5036973)>.
[40:59:245] FOServer::Act_Reload - Unable to find weapon, id<133712>, critter<Npc (mob_sentry_bot, 5036973)>.
[41:00:445] FOServer::Act_Reload - Unable to find weapon, id<133712>, critter<Npc (mob_sentry_bot, 5036973)>.
[41:01:651] FOServer::Act_Reload - Unable to find weapon, id<133712>, critter<Npc (mob_sentry_bot, 5036973)>.
[41:02:863] FOServer::Act_Reload - Unable to find weapon, id<133712>, critter<Npc (mob_sentry_bot, 5036973)>.
[41:04:072] FOServer::Act_Reload - Unable to find weapon, id<133712>, critter<Npc (mob_sentry_bot, 5036973)>.
[41:05:277] FOServer::Act_Reload - Unable to find weapon, id<133712>, critter<Npc (mob_sentry_bot, 5036973)>.
[41:06:484] FOServer::Act_Reload - Unable to find weapon, id<133712>, critter<Npc (mob_sentry_bot, 5036973)>.
[41:07:693] FOServer::Act_Reload - Unable to find weapon, id<133712>, critter<Npc (mob_sentry_bot, 5036973)>.
[41:08:895] FOServer::Act_Reload - Unable to find weapon, id<133712>, critter<Npc (mob_sentry_bot, 5036973)>.
[41:10:098] FOServer::Act_Reload - Unable to find weapon, id<133712>, critter<Npc (mob_sentry_bot, 5036973)>.
[41:11:300] FOServer::Act_Reload - Unable to find weapon, id<133712>, critter<Npc (mob_sentry_bot, 5036973)>.
[41:12:505] FOServer::Act_Reload - Unable to find weapon, id<133712>, critter<Npc (mob_sentry_bot, 5036973)>.
[41:13:714] FOServer::Act_Reload - Unable to find weapon, id<133712>, critter<Npc (mob_sentry_bot, 5036973)>.
[41:14:928] FOServer::Act_Reload - Unable to find weapon, id<133712>, critter<Npc (mob_sentry_bot, 5036973)>.
[41:16:128] FOServer::Act_Reload - Unable to find weapon, id<133712>, critter<Npc (mob_sentry_bot, 5036973)>.
[41:17:341] FOServer::Act_Reload - Unable to find weapon, id<133712>, critter<Npc (mob_sentry_bot, 5036973)>.
[41:18:542] FOServer::Act_Reload - Unable to find weapon, id<133712>, critter<Npc (mob_sentry_bot, 5036973)>.
[41:19:755] FOServer::Act_Reload - Unable to find weapon, id<133712>, critter<Npc (mob_sentry_bot, 5036973)>.
[41:20:957] FOServer::Act_Reload - Unable to find weapon, id<133712>, critter<Npc (mob_sentry_bot, 5036973)>.
[41:22:163] FOServer::Act_Reload - Unable to find weapon, id<133712>, critter<Npc (mob_sentry_bot, 5036973)>.
[41:23:374] FOServer::Act_Reload - Unable to find weapon, id<133712>, critter<Npc (mob_sentry_bot, 5036973)>.
[41:24:575] FOServer::Act_Reload - Unable to find weapon, id<133712>, critter<Npc (mob_sentry_bot, 5036973)>.
[41:25:780] FOServer::Act_Reload - Unable to find weapon, id<133712>, critter<Npc (mob_sentry_bot, 5036973)>.
[41:26:984] FOServer::Act_Reload - Unable to find weapon, id<133712>, critter<Npc (mob_sentry_bot, 5036973)>.
[41:28:196] FOServer::Act_Reload - Unable to find weapon, id<133712>, critter<Npc (mob_sentry_bot, 5036973)>.
[41:29:401] FOServer::Act_Reload - Unable to find weapon, id<133712>, critter<Npc (mob_sentry_bot, 5036973)>.
[41:30:603] FOServer::Act_Reload - Unable to find weapon, id<133712>, critter<Npc (mob_sentry_bot, 5036973)>.
[41:31:813] FOServer::Act_Reload - Unable to find weapon, id<133712>, critter<Npc (mob_sentry_bot, 5036973)>.
[41:33:017] FOServer::Act_Reload - Unable to find weapon, id<133712>, critter<Npc (mob_sentry_bot, 5036973)>.
[41:34:226] FOServer::Act_Reload - Unable to find weapon, id<133712>, critter<Npc (mob_sentry_bot, 5036973)>.
[41:35:437] FOServer::Act_Reload - Unable to find weapon, id<133712>, critter<Npc (mob_sentry_bot, 5036973)>.
[41:36:649] FOServer::Act_Reload - Unable to find weapon, id<133712>, critter<Npc (mob_sentry_bot, 5036973)>.
[41:37:855] FOServer::Act_Reload - Unable to find weapon, id<133712>, critter<Npc (mob_sentry_bot, 5036973)>.
[41:39:063] FOServer::Act_Reload - Unable to find weapon, id<133712>, critter<Npc (mob_sentry_bot, 5036973)>.
[41:40:274] FOServer::Act_Reload - Unable to find weapon, id<133712>, critter<Npc (mob_sentry_bot, 5036973)>.
[41:41:487] FOServer::Act_Reload - Unable to find weapon, id<133712>, critter<Npc (mob_sentry_bot, 5036973)>.
[41:42:701] FOServer::Act_Reload - Unable to find weapon, id<133712>, critter<Npc (mob_sentry_bot, 5036973)>.
[41:43:913] FOServer::Act_Reload - Unable to find weapon, id<133712>, critter<Npc (mob_sentry_bot, 5036973)>.
[41:45:117] FOServer::Act_Reload - Unable to find weapon, id<133712>, critter<Npc (mob_sentry_bot, 5036973)>.
[41:46:322] FOServer::Act_Reload - Unable to find weapon, id<133712>, critter<Npc (mob_sentry_bot, 5036973)>.
[41:47:522] FOServer::Act_Reload - Unable to find weapon, id<133712>, critter<Npc (mob_sentry_bot, 5036973)>.
[41:48:729] FOServer::Act_Reload - Unable to find weapon, id<133712>, critter<Npc (mob_sentry_bot, 5036973)>.
[41:49:939] FOServer::Act_Reload - Unable to find weapon, id<133712>, critter<Npc (mob_sentry_bot, 5036973)>.
[41:51:147] FOServer::Act_Reload - Unable to find weapon, id<133712>, critter<Npc (mob_sentry_bot, 5036973)>.
[41:52:362] FOServer::Act_Reload - Unable to find weapon, id<133712>, critter<Npc (mob_sentry_bot, 5036973)>.
[41:53:570] FOServer::Act_Reload - Unable to find weapon, id<133712>, critter<Npc (mob_sentry_bot, 5036973)>.
[41:54:784] FOServer::Act_Reload - Unable to find weapon, id<133712>, critter<Npc (mob_sentry_bot, 5036973)>.
[41:55:984] FOServer::Act_Reload - Unable to find weapon, id<133712>, critter<Npc (mob_sentry_bot, 5036973)>.
[41:57:191] FOServer::Act_Reload - Unable to find weapon, id<133712>, critter<Npc (mob_sentry_bot, 5036973)>.
[41:58:398] FOServer::Act_Reload - Unable to find weapon, id<133712>, critter<Npc (mob_sentry_bot, 5036973)>.
[41:59:603] FOServer::Act_Reload - Unable to find weapon, id<133712>, critter<Npc (mob_sentry_bot, 5036973)>.
[42:00:805] FOServer::Act_Reload - Unable to find weapon, id<133712>, critter<Npc (mob_sentry_bot, 5036973)>.
[42:02:012] FOServer::Act_Reload - Unable to find weapon, id<133712>, critter<Npc (mob_sentry_bot, 5036973)>.
[42:03:223] FOServer::Act_Reload - Unable to find weapon, id<133712>, critter<Npc (mob_sentry_bot, 5036973)>.
[42:04:425] FOServer::Act_Reload - Unable to find weapon, id<133712>, critter<Npc (mob_sentry_bot, 5036973)>.
[42:05:629] FOServer::Act_Reload - Unable to find weapon, id<133712>, critter<Npc (mob_sentry_bot, 5036973)>.
[42:06:834] FOServer::Act_Reload - Unable to find weapon, id<133712>, critter<Npc (mob_sentry_bot, 5036973)>.
[42:08:045] FOServer::Act_Reload - Unable to find weapon, id<133712>, critter<Npc (mob_sentry_bot, 5036973)>.
[42:09:245] FOServer::Act_Reload - Unable to find weapon, id<133712>, critter<Npc (mob_sentry_bot, 5036973)>.
[42:10:457] FOServer::Act_Reload - Unable to find weapon, id<133712>, critter<Npc (mob_sentry_bot, 5036973)>.
[42:11:670] FOServer::Act_Reload - Unable to find weapon, id<133712>, critter<Npc (mob_sentry_bot, 5036973)>.
[42:12:879] FOServer::Act_Reload - Unable to find weapon, id<133712>, critter<Npc (mob_sentry_bot, 5036973)>.
[42:14:081] FOServer::Act_Reload - Unable to find weapon, id<133712>, critter<Npc (mob_sentry_bot, 5036973)>.
[42:15:284] FOServer::Act_Reload - Unable to find weapon, id<133712>, critter<Npc (mob_sentry_bot, 5036973)>.
[42:16:489] FOServer::Act_Reload - Unable to find weapon, id<133712>, critter<Npc (mob_sentry_bot, 5036973)>.
[42:17:698] FOServer::Act_Reload - Unable to find weapon, id<133712>, critter<Npc (mob_sentry_bot, 5036973)>.
[42:18:905] FOServer::Act_Reload - Unable to find weapon, id<133712>, critter<Npc (mob_sentry_bot, 5036973)>.
[42:20:113] FOServer::Act_Reload - Unable to find weapon, id<133712>, critter<Npc (mob_sentry_bot, 5036973)>.
[001:01:10:939] World saved in 27.7177 ms.
