#
# Some definitions
#

*0
0      ---LOCATIONS---
1      LocDen
2      LocKlamath
3      LocModoc
4      LocVaultCity
5      LocGecko
6      LocBrokenHills
7      LocNewReno
8      LocSierra
9      LocVault15
10     LocNCR
11     LocCathedral
12     LocMilitaryBase
13     LocRedding
14     LocSanFrancisco
15     LocNavarro
16     LocArroyo
17     LocPrimalTribe
18     LocRangers
19     LocVault13
40     LocReplication1
41     LocReplication2
42     LocReplication3
43     LocReplication4
44     LocReplicationHell
46     LocMiracle

*0
0      ---STATS---
0      StatStrength
1      StatPerception
2      StatEndurance
3      StatCharisma
4      StatIntellect
5      StatAgility
6      StatLuck

*200
0      ---SKILLS---
0      SkillSmallGuns
1      SkillBigGuns
2      SkillEnergyWeapons
3      SkillUnarmed
4      SkillMeleeWeapons
5      SkillThrowing
6      SkillFirstAid
7      SkillDoctor
8      SkillSneak
9      SkillLockpick
10     SkillSteal
11     SkillTraps
12     SkillScience
13     SkillRepair
14     SkillSpeech
15     SkillBarter
16     SkillGambling
17     SkillOutdoorsman

*0
0      ---HOLODISKS---
100    HoloBaxMainInfo
101    HoloBaxSermonDead
102    HoloBaxSermonCharacter
103    HoloBaxSermonNasty
104    HoloBaxSermonBehavior
105    HoloBaxMythNeutral

*0
0      ---ANIM1---
1      Anim1Unarmed
4      Anim1Knife
5      Anim1Club
6      Anim1Hammer
7      Anim1Spear
8      Anim1Pistol
9      Anim1SMG
10     Anim1Shootgun
11     Anim1HeavyRifle
12     Anim1Minigun
13     Anim1RocketLauncher
14     Anim1Flamer
15     Anim1Rifle
16     Anim1Sword
17     Anim1LongSword
18     Anim1Axe
19     Anim1Bow

*0
0      ---ANIM2---
1      Anim2Idle
2      Anim2IdleStunned
3      Anim2Walk
4      Anim2Limp
5      Anim2Run
6      Anim2PanicRun
7      Anim2SneakWalk
8      Anim2SneakRun
10     Anim2Stand
11     Anim2Crouch
12     Anim2Prone
20     Anim2ShowWeapon
21     Anim2HideWeapon
22     Anim2PrepareWeapon
23     Anim2TurnoffWeapon
24     Anim2Fidget
26     Anim2Climbing
27     Anim2PickUp
28     Anim2Use
29     Anim2SwitchItems
30     Anim2Reload
31     Anim2Repair
35     Anim2Loot
36     Anim2Steal
37     Anim2Push
40     Anim2BeginCombat
41     Anim2IdleCombat
42     Anim2EndCombat
43     Anim2PunchRight
44     Anim2PunchLeft
45     Anim2PunchCombo
46     Anim2KickHi
47     Anim2KickLo
48     Anim2KickCombo
49     Anim2Thrust1H
50     Anim2Thrust2H
51     Anim2Swing1H
52     Anim2Swing2H
53     Anim2Throw
54     Anim2Single
55     Anim2Burst
56     Anim2Sweep
57     Anim2Butt
58     Anim2Flame
59     Anim2NoRecoil
70     Anim2DodgeFront
71     Anim2DodgeBack
72     Anim2DamageFront
73     Anim2DamageBack
74     Anim2DamageMulFront
75     Anim2DamageMulBack
76     Anim2WalkDamageFront
77     Anim2WalkDamageBack
78     Anim2LimpDamageFront
79     Anim2LimpDamageBack
80     Anim2RunDamageFront
81     Anim2RunDamageBack
82     Anim2KnockFront
83     Anim2KnockBack
84     Anim2LaydownFront
85     Anim2LaydownBack
86     Anim2IdleProneFront
87     Anim2IdleProneBack
88     Anim2StandupFront
89     Anim2StandupBack
90     Anim2DamageProneFront
91     Anim2DamageProneBack
92     Anim2DamageMulProneFront
93     Anim2DamageMulProneBack
94     Anim2TwitchProneFront
95     Anim2TwitchProneBack
100    Anim2DeadProneFront
101    Anim2DeadProneBack
102    Anim2DeadFront
103    Anim2DeadBack
110    Anim2DeadBloodySingle
111    Anim2DeadBloodyBurst
112    Anim2DeadBurst
113    Anim2DeadPulse
114    Anim2DeadPulseDust
115    Anim2DeadLaser
116    Anim2DeadFused
117    Anim2DeadExplode
118    Anim2DeadBurn
119    Anim2DeadBurnRun
