[19.02.2017 16:41:22] Initializing Object Editor 3.1.8 compatible with 2.14.3 format.
[19.02.2017 16:41:22]    OS version: Microsoft Windows NT 6.1.7601 Service Pack 1 32-bit
   .NET CLR version: 4.0.30319.42000
   .NET installed versions:
       2.0 (SP 2) - 2.0.50727.5420
       3.0 (SP 2) - 3.0.30729.5420
       3.5 (SP 1) - 3.5.30729.5420
       4.0 Client Profile
       4.0 Full Profile

[19.02.2017 16:41:23] ..\..\Server\text\russ\foobj.msg parsed.
[19.02.2017 16:41:23] Initializing successful.
[19.02.2017 16:42:22] Data written to ..\..\Server\text\russ\foobj.msg
